…
i2: [[10,10,10,6,6,...,8,8,9,9,9],[10,10,10,10,8,...,4,9,9,9,9],...,[0,1],[10,10,10,10,2,...,8,9,9,9,9]]
j2: [[6,6,6,10,10,...,8,8,7,7,7],[8,8,8,8,10,...,0,9,9,9,9],...,[1,0],[2,2,2,2,10,...,4,3,3,3,3]]
> # Binding this pyarrow.Table as a native R object requires loading the R arrow package
> require("arrow")
> require("magrittr")
> require("tibble")
> db$get_sql("SELECT ex1.i AS i1, ex1.j AS j1, ex2.i AS i2, ex2.j AS j2 FROM ex1 INNER JOIN ex2 ON ex1.value = ex2.value")
Table
311 rows x 4 columns
$i1 <int64>
$j1 <int64>
$i2 <int64>
$j2 <int64>
> db$get_sql("SELECT ex1.i AS i1, ex1.j AS j1, ex2.i AS i2, ex2.j AS j2 FROM ex1 INNER JOIN ex2 ON ex1.value = ex2.value") %>% as.tibble
# A tibble: 311 × 4
      i1    j1    i2    j2
   <int> <int> <int> <int>
 1     2     8    10     6
 2     4     4    10     6
 3     8     2    10     6
 4     2     8     6    10
 5     4     4     6    10
 6     8     2     6    10
 7     2     8     7     9
 8     4     4     7     9
 9     8     2     7     9
10     2     8     8     8
# ℹ 301 more rows
# ℹ Use `print(n = ...)` to see more rows
```
